(kicad_sch (version 20230121) (generator eeschema)

  (uuid ba41827b-f176-424d-b6d5-0b0e1ddda097)

  (paper "A4")

  (title_block
    (title "Lancer Mainboard")
    (date "2021-11-08")
    (rev "R0.1")
    (company "Copyright Modos 2021. / Engineer: Wenting Zhang")
    (comment 2 "MERCHANTABILITY, SATISFACTORY QUALITY AND FITNESS FOR A PARTICULAR PURPOSE.")
    (comment 3 "This source is distributed WITHOUT ANY EXPRESS OR IMPLIED WARRANTY, INCLUDING OF")
    (comment 4 "This source describes Open Hardware and is licensed under the CERN-OHL-S v2.")
  )

  (lib_symbols
  )


  (text "Power Supply" (at 43.18 45.72 0)
    (effects (font (size 2.54 2.54)) (justify left bottom))
    (uuid 1f40dc14-a320-4374-bb27-46d3f5c897ef)
  )
  (text "Table of Contents" (at 43.18 35.56 0)
    (effects (font (size 2.9972 2.9972) (thickness 0.5994) bold italic) (justify left bottom))
    (uuid 381457cc-8e00-49b0-bed6-8c7335498798)
  )
  (text "USB Hub" (at 43.18 76.2 0)
    (effects (font (size 2.54 2.54)) (justify left bottom))
    (uuid 3fe83452-8f35-4e46-8007-249a8eed789b)
  )
  (text "Keyboard" (at 43.18 96.52 0)
    (effects (font (size 2.54 2.54)) (justify left bottom))
    (uuid 6a35f78a-e61b-4a50-8fb4-179b69ad26a1)
  )
  (text "4" (at 33.02 76.2 0)
    (effects (font (size 2.54 2.54)) (justify left bottom))
    (uuid 8510375c-0e11-4bd6-a302-0354edb6fdeb)
  )
  (text "6" (at 33.02 96.52 0)
    (effects (font (size 2.54 2.54)) (justify left bottom))
    (uuid 9169357c-ad88-4dfe-9fa9-b5d0d571e88d)
  )
  (text "Ethernet" (at 43.18 106.68 0)
    (effects (font (size 2.54 2.54)) (justify left bottom))
    (uuid 944ed2f8-62f2-4879-97af-697de3f6861c)
  )
  (text "5" (at 33.02 86.36 0)
    (effects (font (size 2.54 2.54)) (justify left bottom))
    (uuid 94a7d5db-e0eb-412d-abcb-b316ebd6130b)
  )
  (text "Display" (at 43.18 66.04 0)
    (effects (font (size 2.54 2.54)) (justify left bottom))
    (uuid 9a1c8ec0-d8e8-48f7-9b9a-73d36cfb311f)
  )
  (text "7" (at 33.02 106.68 0)
    (effects (font (size 2.54 2.54)) (justify left bottom))
    (uuid a5219b10-7855-41ca-88ef-bf7d44bd1431)
  )
  (text "USB Type-C Input" (at 43.18 86.36 0)
    (effects (font (size 2.54 2.54)) (justify left bottom))
    (uuid a5d6a667-4f93-4632-b6eb-af79edadb4ad)
  )
  (text "1" (at 33.02 45.72 0)
    (effects (font (size 2.54 2.54)) (justify left bottom))
    (uuid bde16e79-6736-46dc-9ff4-564bba896064)
  )
  (text "3" (at 33.02 66.04 0)
    (effects (font (size 2.54 2.54)) (justify left bottom))
    (uuid c2610333-5f8e-4ac0-98af-8c4fba9f3260)
  )
  (text "2" (at 33.02 55.88 0)
    (effects (font (size 2.54 2.54)) (justify left bottom))
    (uuid d567e8cc-8cc0-4fee-82b6-35747222ef59)
  )
  (text "EC" (at 43.18 55.88 0)
    (effects (font (size 2.54 2.54)) (justify left bottom))
    (uuid e0a49a06-41e1-4ea6-806e-3f47d699d347)
  )

  (sheet (at 40.64 71.12) (size 73.66 5.08)
    (stroke (width 0) (type solid))
    (fill (color 0 0 0 0.0000))
    (uuid 00000000-0000-0000-0000-00005d1a413b)
    (property "Sheetname" "usb" (at 40.64 70.4845 0)
      (effects (font (size 1.27 1.27)) (justify left bottom))
    )
    (property "Sheetfile" "usb.kicad_sch" (at 40.64 76.7085 0)
      (effects (font (size 1.27 1.27)) (justify left top))
    )
    (instances
      (project "pcb"
        (path "/ba41827b-f176-424d-b6d5-0b0e1ddda097" (page "5"))
      )
    )
  )

  (sheet (at 40.64 91.44) (size 73.66 5.08)
    (stroke (width 0) (type solid))
    (fill (color 0 0 0 0.0000))
    (uuid 00000000-0000-0000-0000-00005d438406)
    (property "Sheetname" "keypad" (at 40.64 90.8045 0)
      (effects (font (size 1.27 1.27)) (justify left bottom))
    )
    (property "Sheetfile" "keypad.kicad_sch" (at 40.64 97.0285 0)
      (effects (font (size 1.27 1.27)) (justify left top))
    )
    (instances
      (project "pcb"
        (path "/ba41827b-f176-424d-b6d5-0b0e1ddda097" (page "6"))
      )
    )
  )

  (sheet (at 40.64 40.64) (size 73.66 5.08)
    (stroke (width 0) (type solid))
    (fill (color 0 0 0 0.0000))
    (uuid 00000000-0000-0000-0000-00005d4c99f9)
    (property "Sheetname" "power" (at 40.64 40.0045 0)
      (effects (font (size 1.27 1.27)) (justify left bottom))
    )
    (property "Sheetfile" "power.kicad_sch" (at 40.64 46.2285 0)
      (effects (font (size 1.27 1.27)) (justify left top))
    )
    (instances
      (project "pcb"
        (path "/ba41827b-f176-424d-b6d5-0b0e1ddda097" (page "1"))
      )
    )
  )

  (sheet (at 40.64 60.96) (size 73.66 5.08)
    (stroke (width 0) (type solid))
    (fill (color 0 0 0 0.0000))
    (uuid 00000000-0000-0000-0000-00005db51f59)
    (property "Sheetname" "lcd" (at 40.64 60.3245 0)
      (effects (font (size 1.27 1.27)) (justify left bottom))
    )
    (property "Sheetfile" "lcd.kicad_sch" (at 40.64 66.5485 0)
      (effects (font (size 1.27 1.27)) (justify left top))
    )
    (instances
      (project "pcb"
        (path "/ba41827b-f176-424d-b6d5-0b0e1ddda097" (page "3"))
      )
    )
  )

  (sheet (at 40.64 81.28) (size 73.66 5.08) (fields_autoplaced)
    (stroke (width 0.1524) (type solid))
    (fill (color 0 0 0 0.0000))
    (uuid 4f2f72d5-5004-4d8e-9153-ad7c27b1fff2)
    (property "Sheetname" "typec" (at 40.64 80.5684 0)
      (effects (font (size 1.27 1.27)) (justify left bottom))
    )
    (property "Sheetfile" "typec.kicad_sch" (at 40.64 86.9446 0)
      (effects (font (size 1.27 1.27)) (justify left top))
    )
    (instances
      (project "pcb"
        (path "/ba41827b-f176-424d-b6d5-0b0e1ddda097" (page "4"))
      )
    )
  )

  (sheet (at 40.64 101.6) (size 73.66 5.08) (fields_autoplaced)
    (stroke (width 0.1524) (type solid))
    (fill (color 0 0 0 0.0000))
    (uuid b067fd26-a7b5-4920-a7ee-3fb63e52a1ed)
    (property "Sheetname" "ethernet" (at 40.64 100.8884 0)
      (effects (font (size 1.27 1.27)) (justify left bottom))
    )
    (property "Sheetfile" "ethernet.kicad_sch" (at 40.64 107.2646 0)
      (effects (font (size 1.27 1.27)) (justify left top))
    )
    (instances
      (project "pcb"
        (path "/ba41827b-f176-424d-b6d5-0b0e1ddda097" (page "7"))
      )
    )
  )

  (sheet (at 40.64 50.8) (size 73.66 5.08) (fields_autoplaced)
    (stroke (width 0) (type solid))
    (fill (color 0 0 0 0.0000))
    (uuid f9987ff4-9b67-4878-892f-6310dc5f1861)
    (property "Sheetname" "ec" (at 40.64 50.1643 0)
      (effects (font (size 1.27 1.27)) (justify left bottom))
    )
    (property "Sheetfile" "ec.kicad_sch" (at 40.64 56.3887 0)
      (effects (font (size 1.27 1.27)) (justify left top))
    )
    (instances
      (project "pcb"
        (path "/ba41827b-f176-424d-b6d5-0b0e1ddda097" (page "2"))
      )
    )
  )

  (sheet_instances
    (path "/" (page "0"))
  )
)
